…
```r
sf_obj<- st_as_sf(coord, coords = c("easting", "northing"), crs = "+proj=utm +zone=13 +ellps=GRS80 +datum=NAD83 +units=m +no_defs")

sf_obj
```
Output:

```r
Simple feature collection with 5000 features and 0 fields
geometry type:  POINT
dimension:      XY
bbox:           xmin: 173118.4 ymin: 4220933 xmax: 187971.9 ymax: 4232603
epsg (SRID):    26913
proj4string:    +proj=utm +zone=13 +ellps=GRS80 +towgs84=0,0,0,0,0,0,0 +units=m +no_defs
# A tibble: 5,000 x 1
             geometry
          <POINT [m]>
 1 (176681.1 4230659)
 2 (174927.8 4222673)
 3 (178167.1 4229261)
 4 (186605.6 4230476)
 5 (176185.4 4227015)
 6 (184934.5 4222134)
 7 (186177.4 4231785)
 8   (183417 4231574)
 9 (187055.3 4222734)
10   (174989 4230511)
# ... with 4,990 more rows
```
…
