…
flow_data<-read_tsv(url, skip = 35)%>%
  select(2:5)%>%
  rename(site_id = 1, date = 2, flow=3, code = 4)%>%
  mutate(site_id = ifelse(site_id == "09166500", "Dolores", "Bedrock"))%>%
  drop_na()

bedrock_flow<-flow_data%>%
  filter(site_id == "Bedrock"& year(date)>1986)%>%
  select(-code)

bedrock_flow
```

``` r
## # A tibble: 12,098 x 3
##    site_id date        flow
##    <chr>   <date>     <dbl>
##  1 Bedrock 1987-01-01   120
##  2 Bedrock 1987-01-02   130
##  3 Bedrock 1987-01-03   120
##  4 Bedrock 1987-01-04   120
##  5 Bedrock 1987-01-05   140
##  6 Bedrock 1987-01-06   140
##  7 Bedrock 1987-01-07   130
##  8 Bedrock 1987-01-08   130
##  9 Bedrock 1987-01-09   110
## 10 Bedrock 1987-01-10    95
## # … with 12,088 more rows
```
…
### Subsetting the release
Next I needed to subset days where there is a raftable release.  Releases happen during spring runoff so I wanted to subset those days in the spring that had greater than 800 cfs (cubic feet per second) of flow.  I wanted to make sure to exclude non 
``` r
predicted_variable<-bedrock_flow%>%
  filter(flow>800 & month(date) %in% c(3:7))%>%
  count(year(date))%>%
  rename(year = 1, raftable_releases = 2)

predicted_variable
```

``` r
## # A tibble: 21 x 2
##     year raftable_releases
##    <dbl>             <int>
##  1  1987                87
##  2  1988                13
##  3  1989                17
##  4  1991                 9
##  5  1992                61
##  6  1993                99
##  7  1994                35
##  8  1995                89
##  9  1997                82
## 10  1998                63
## # … with 11 more rows
```
…
### Finding All Snotel Sites in the Dolores Watershed 
First we need to find which SNOTEL sites are within the Dolores River watershed to inform how much water could end up in McPhee reservoir.

``` r
library(RNRCS)
meta_data<-grabNRCS.meta(ntwrks = c("SNTL", "SNTLT", "SCAN"))

meta_data_unlist<-meta_data[[1]]%>%
  as_tibble()

meta_data_unlist
```

``` r
## # A tibble: 876 x 13
##    ntwk  wyear state site_name ts    start enddate latitude longitude
##    <chr> <fct> <fct> <chr>     <fct> <fct> <fct>   <fct>    <fct>    
##  1 SNTL  2019  AK    Frostbit… ""    2019… 2100-J… "  61.7… -149.27  
##  2 SNTL  2019  AK    McGrath   ""    2019… 2100-J… "  62.9… -155.61  
##  3 SNTL  2019  UT    Parleys … ""    2019… 2100-J… "  40.7… -111.61  
##  4 SNTL  2018  AK    East Pal… ""    2018… 2100-J… "  61.6… -149.10  
##  5 SNTL  2018  AK    Galena AK ""    2018… 2100-J… "  64.7… -156.71  
##  6 SNTL  2018  MT    JL Meadow ""    2017… 2100-J… "  44.7… -113.12  
##  7 SNTL  2018  NV    ONeil Cr… ""    2018… 2100-J… "  41.8… -115.08  
##  8 SNTL  2017  AK    Flower M… ""    2017… 2100-J… "  59.4… -136.28  
##  9 SNTL  2017  CA    Fredonye… ""    2016… 2100-J… "  40.6… -120.61  
## 10 SNTL  2017  UT    Bobs Hol… ""    2016… 2100-J… "  38.9… -112.15  
## # … with 866 more rows, and 4 more variables: elev_ft <fct>, county <fct>,
## #   huc <fct>, site_id <chr>
```
…
We then convert the data to a tibble for better output in Rstudio and add a column with `mutate` with the site\_id number for working with the data later.

### Getting ALL the data with lapply

``` r
all_sntl_data<-lapply(dolores_site_ids, get_snotl_data)%>%
  bind_rows()

all_sntl_data
```

``` r
## # A tibble: 58,531 x 22
##    Date  Air.Temperature… Air.Temperature… Air.Temperature…
##    <chr>            <int>            <int>            <int>
##  1 2012…               46               52               42
##  2 2012…               46               53               42
##  3 2012…               52               62               44
##  4 2012…               52               61               46
##  5 2012…               52               64               46
##  6 2012…               54               64               47
##  7 2012…               53               64               49
##  8 2012…               52               61               47
##  9 2012…               54               63               49
## 10 2012…               50               61               42
## # … with 58,521 more rows, and 18 more variables:
## #   Air.Temperature.Observed..degF..Start.of.Day.Values <int>,
## #   Precipitation.Accumulation..in..Start.of.Day.Values <dbl>,
## #   Snow.Depth..in..Start.of.Day.Values <int>,
## #   Snow.Water.Equivalent..in..Start.of.Day.Values <dbl>,
## #   Soil.Moisture.Percent..4in..pct..Start.of.Day.Values <dbl>,
## #   Soil.Moisture.Percent..8in..pct..Start.of.Day.Values <dbl>,
## #   Soil.Moisture.Percent..20in..pct..Start.of.Day.Values <dbl>,
## #   Soil.Moisture.Percent..40in..pct..Start.of.Day.Values <dbl>,
…
``` r
se_site<-all_sntl_data%>%
  select(Date, Snow.Depth..in..Start.of.Day.Values, Snow.Water.Equivalent..in..Start.of.Day.Values, site_id_num)%>%
  mutate(
    date = as.Date(Date)
    )%>%
  rename(snow_depth = 2, snow_water_eq=3)%>%
  filter(site_id_num %in% c(465, 586, 589, 739))

se_site
```

``` r
## # A tibble: 50,182 x 5
##    Date       snow_depth snow_water_eq site_id_num date      
##    <chr>           <int>         <dbl>       <dbl> <date>    
##  1 1986-08-05         NA            NA         465 1986-08-05
##  2 1986-08-06         NA             0         465 1986-08-06
##  3 1986-08-07         NA             0         465 1986-08-07
##  4 1986-08-08         NA             0         465 1986-08-08
##  5 1986-08-09         NA             0         465 1986-08-09
##  6 1986-08-10         NA             0         465 1986-08-10
##  7 1986-08-11         NA             0         465 1986-08-11
##  8 1986-08-12         NA             0         465 1986-08-12
##  9 1986-08-13         NA             0         465 1986-08-13
## 10 1986-08-14         NA             0         465 1986-08-14
## # … with 50,172 more rows
```
…
``` r
se_site_year<-se_site%>%
  group_by(year(date), site_id_num)%>%
  summarize(max_se = max(snow_water_eq, na.rm = T))%>%
  ungroup()%>%
  rename(year=1)

se_site_year
```

``` r
## # A tibble: 142 x 3
##     year site_id_num max_se
##    <dbl>       <dbl>  <dbl>
##  1  1985         586   21.6
##  2  1985         589   23.5
##  3  1986         465    6.3
##  4  1986         586   19.8
##  5  1986         589   20.8
##  6  1986         739    5.1
##  7  1987         465   19.1
##  8  1987         586   19.1
##  9  1987         589   22  
## 10  1987         739   20.1
## # … with 132 more rows
```
…
To simplify things we will average the sites. I think if I did this again I would not average the sites but have each site be a predictor.

``` r
avg_snwater_eq<-se_site_year%>%
  filter(year>1986)%>%
  group_by(year)%>%
  summarize(avg_snow_water_e = mean(max_se))%>%
  ungroup()

avg_snwater_eq
```

``` r
## # A tibble: 34 x 2
##     year avg_snow_water_e
##    <dbl>            <dbl>
##  1  1987            20.1
##  2  1988            11.4
##  3  1989            16.3
##  4  1990             9.28
##  5  1991            16.5
##  6  1992            15.5
##  7  1993            25.4
##  8  1994            12.3
##  9  1995            21.8
## 10  1996            13.6
## # … with 24 more rows
```
…
``` r
avg_sn<-se_site%>%
  filter(year(Date)>1987)%>%
  group_by(Date)%>%
  summarize(avg_sn_eq =  mean(snow_water_eq, rm.na = T))%>%
  ungroup()%>%
  mutate(Date = as.Date(Date))


avg_sn
```

``` r
## # A tibble: 11,741 x 2
##    Date       avg_sn_eq
##    <date>         <dbl>
##  1 1988-01-01      4.1
##  2 1988-01-02      4.18
##  3 1988-01-03      4.38
##  4 1988-01-04      4.53
##  5 1988-01-05      4.82
##  6 1988-01-06      5.4
##  7 1988-01-07      5.6
##  8 1988-01-08      5.65
##  9 1988-01-09      5.8
## 10 1988-01-10      5.9
## # … with 11,731 more rows
```
…
``` r
bor_data<-grabBOR.data(site_id = "MPHC2000",
                       timescale = 'daily',
                       DayBgn = '1985-01-01',
                      DayEnd = Sys.Date())%>%
  as_tibble()%>%
  mutate(date = as.Date(Date),
         res_volume = as.numeric(`Reservoir Storage Volume (ac_ft) Start of Day Values`))%>%
  select(date, res_volume)

bor_data
```

``` r
## # A tibble: 12,826 x 2
##    date       res_volume
##    <date>          <dbl>
##  1 1985-01-01      44997
##  2 1985-01-02      45079
##  3 1985-01-03      45161
##  4 1985-01-04      45189
##  5 1985-01-05      45207
##  6 1985-01-06      45262
##  7 1985-01-07      45372
##  8 1985-01-08      45463
##  9 1985-01-09      45601
## 10 1985-01-10      45721
## # … with 12,816 more rows
```
…
``` r
res_vol<-bor_data%>%
  filter(month(date) %in% c(01, 02))%>%
  group_by(year(date))%>%
  summarize(min_vol = min(res_volume, na.rm = T))%>%
  ungroup()%>%
  rename(year = 1)%>%
  filter(year>1986)

res_vol
```

``` r
## # A tibble: 34 x 2
##     year min_vol
##    <dbl>   <dbl>
##  1  1987  293309
##  2  1988  324234
##  3  1989  319239
##  4  1990  274597
##  5  1991  241536
##  6  1992  297471
##  7  1993  304632
##  8  1994  310609
##  9  1995  268308
## 10  1996  312568
## # … with 24 more rows
```
…
var_df_train<-var_df%>%
  filter(year!=2020)

var_df_test<-var_df%>%
  filter(year==2020)

var_df_train
```

``` r
## # A tibble: 33 x 4
##     year raftable_releases avg_snow_water_e min_vol
##    <dbl>             <dbl>            <dbl>   <dbl>
##  1  1987                87            20.1   293309
##  2  1988                13            11.4   324234
##  3  1989                17            16.3   319239
##  4  1990                 0             9.28  274597
##  5  1991                 9            16.5   241536
##  6  1992                61            15.5   297471
##  7  1993                99            25.4   304632
##  8  1994                35            12.3   310609
##  9  1995                89            21.8   268308
## 10  1996                 0            13.6   312568
## # … with 23 more rows
```
…
