…
list_url <- paste0(base_url, mlra, "/class-list.txt")
ecoclasses <- read_tsv(list_url,  skip=2)%>%
  janitor::clean_names()
```

## Use `stringr` to filter just colorado sites
```r
co_classes<-ecoclasses%>%
  filter(str_detect(ecological_site_id, "CO$"))
```

The result should look like this:

```r
# A tibble: 21 x 4
   mlra  ecological_site_id ecological_site_legacy_id ecological_site_name 
   <chr> <chr>              <chr>                     <chr>
 1 036X  R036XY038CO        R036XY038CO               Wet Meadow
 2 036X  R036XY110CO        R036XY110CO               Shallow Clay Loam - ~
 3 036X  R036XY111CO        R036XY111CO               Steep Shallow Clay L~
 4 036X  R036XY113CO        R036XY113CO               Semidesert Juniper L~
 5 036X  R036XY114CO        R036XY114CO               Mountain Pinyon      
 6 036X  R036XY141CO        R036XY141CO               Shallow Loamy Mesa T~ 
 7 036X  R036XY142CO        R036XY142CO               Loamy Mesa Top - (Pi~ 
 8 036X  R036XY266CO        R036XY266CO               Salt Meadow
 9 036X  R036XY284CO        R036XY284CO               Loamy Foothills       
10 036X  R036XY287CO        R036XY287CO               Stony Foothills       
# ... with 11 more rows
```
…
