…
all_sntl_data<-lapply(dolores_site_ids, get_snotel_data)%>%
  bind_rows()

sntl_cl<-all_sntl_data%>%
  select(site_id, date, snow_water_equivalent)%>%
  mutate(date=as.Date(date))
```
At the end we select just the variables we need and convert the date to an actual date. The resulting dataframe looks something like this. 

```r
>snotel_cl
# A tibble: 57,693 × 3
   site_id date       snow_water_equivalent
     <dbl> <date>                     <int>
 1     465 1986-08-05                    NA
 2     465 1986-08-06                     0
 3     465 1986-08-07                     0
 4     465 1986-08-08                     0
 5     465 1986-08-09                     0
 6     465 1986-08-10                     0
 7     465 1986-08-11                     0
 8     465 1986-08-12                     0
 9     465 1986-08-13                     0
10     465 1986-08-14                     0
# … with 57,683 more rows
# ℹ Use `print(n = ...)` to see more rows
```
The last steps are to get just the years after McPhee was put in, convert the site ids to better header formats and then pivot the data so that each date has a value for each of the four sites. 
```r
all_sites_sntl<-sntl_cl%>%
  filter(year(date)>1986)%>%
  mutate(site_id = paste0("site_id_", site_id))%>%
  pivot_wider(names_from=site_id, values_from=snow_water_equivalent)
```
```r
> all_sites_sntl
# A tibble: 13,172 × 5
   date       site_id_465 site_id_586 site_id_589 site_id_739
   <date>           <int>       <int>       <int>       <int>
 1 1987-01-01         122         175         124          99
 2 1987-01-02         124         183         130         102
 3 1987-01-03         124         185         132         102
 4 1987-01-04         124         183         137         104
 5 1987-01-05         130         183         137         107
 6 1987-01-06         145         196         168         112
 7 1987-01-07         145         196         173         112
 8 1987-01-08         155         188         185         112
 9 1987-01-09         155         180         190         124
10 1987-01-10         155         175         193         124
# … with 13,162 more rows
# ℹ Use `print(n = ...)` to see more rows
```
…
```r
bor_data<-grabBOR.data(site_id = "MPHC2000",
                       timescale = 'daily',
                       DayBgn = "1987-01-01",
                       DayEnd = Sys.Date())%>%
  as_tibble()%>%
  mutate(date = as.Date(Date),
         res_volume = as.numeric(`Reservoir Storage Volume (ac_ft) Start of Day Values`))%>%
  select(date, res_volume)
```
```r
> bor_data
r$> bor_data                                                    
# A tibble: 13,172 × 2
   date       res_volume
   <date>          <dbl>
 1 1987-01-01     293384
 2 1987-01-02     293423
 3 1987-01-03     293460
 4 1987-01-04     293535
 5 1987-01-05     293610
 6 1987-01-06     293574
 7 1987-01-07     293574
 8 1987-01-08     293610
 9 1987-01-09     293649
10 1987-01-10     293610
# … with 13,162 more rows
# ℹ Use `print(n = ...)` to see more rows
```
At the onset, it doesn't seem probable that a raftable release will occur. To have a raftable release, we need McPhee reservoir to fill up, having excess water to spill below the damn.  Looking at all volumes for January 1st, this year is the eighth lowest reservoir volume since 1987 (as far back as I have data for). 
```r
bor_data%>% 
  filter(month(date)=="1" & day(date)=="1")%>% 
  arrange(res_volume)                                         
# A tibble: 37 × 2
   date       res_volume
   <date>          <dbl>
 1 2003-01-01     159438
 2 2022-01-01     164790
 3 2021-01-01     167774
 4 2019-01-01     168033
 5 2004-01-01     171742
 6 2015-01-01     181336
 7 2014-01-01     182394
 8 2023-01-01     186844
 9 2013-01-01     192216
10 2005-01-01     205100
# … with 27 more rows
# ℹ Use `print(n = ...)` to see more rows
```
But after a ton of snow in January I thought that maybe we could have a release. 

Now we join these datasets to get all of our predictors or variables....almost. We need to make one more variable to keep track of the season which we will take care of in a later step. 

```r
vars_all<-all_sites_sntl%>%
  left_join(bor_data, by="date")
```
```r
> vars_all
# A tibble: 13,172 × 6
   date       site_id_465 site_id_586 site_id_589 site_id_739 res_volume
   <date>           <int>       <int>       <int>       <int>      <dbl>
 1 1987-01-01         122         175         124          99     293384
 2 1987-01-02         124         183         130         102     293423
 3 1987-01-03         124         185         132         102     293460
 4 1987-01-04         124         183         137         104     293535
 5 1987-01-05         130         183         137         107     293610
 6 1987-01-06         145         196         168         112     293574
 7 1987-01-07         145         196         173         112     293574
 8 1987-01-08         155         188         185         112     293610
 9 1987-01-09         155         180         190         124     293649
10 1987-01-10         155         175         193         124     293610
# … with 13,162 more rows
# ℹ Use `print(n = ...)` to see more rows
```
…
```r
predicted_variable<-flow_data%>%
  filter(site_id=="Bedrock")%>%
  mutate(
    raftable = ifelse(flow>800, 1, 0),
    year = year(date)
  )%>%
  filter(month(date) %in% c(3:7))%>%
  group_by(year)%>%
  summarize(raftable_release_days = sum(raftable))%>%
  ungroup()
```
```r
> predicted_variable
# A tibble: 38 × 2
    year raftable_release_days
   <dbl>                 <dbl>
 1  1985                   102
 2  1986                    85
 3  1987                    87
 4  1988                    13
 5  1989                    17
 6  1990                     0
 7  1991                     9
 8  1992                    61
 9  1993                    99
10  1994                    35
# … with 28 more rows
# ℹ Use `print(n = ...)` to see more rows
```
…
The last thing we do here is remove as many days that are zero for all of the snotel sites. And now we have our dataset ready to build our model. 
```r
data_all                                                                               
# A tibble: 7,598 × 10
   date       site_id_465 site_id_586 site_…¹ site_…² res_v…³  year rafta…⁴ day_t…⁵ index…⁶
   <date>           <int>       <int>   <int>   <int>   <dbl> <dbl>   <dbl>   <dbl>   <dbl>
 1 1987-01-01         122         175     124      99  293384  1987      87     196       7
 2 1987-01-02         124         183     130     102  293423  1987      87     197       7
 3 1987-01-03         124         185     132     102  293460  1987      87     198       7
 4 1987-01-04         124         183     137     104  293535  1987      87     199       7
 5 1987-01-05         130         183     137     107  293610  1987      87     200       7
 6 1987-01-06         145         196     168     112  293574  1987      87     201       7
 7 1987-01-07         145         196     173     112  293574  1987      87     202       7
 8 1987-01-08         155         188     185     112  293610  1987      87     203       7
 9 1987-01-09         155         180     190     124  293649  1987      87     204       7
10 1987-01-10         155         175     193     124  293610  1987      87     205       7
# … with 7,588 more rows, and abbreviated variable names ¹​site_id_589, ²​site_id_739,
#   ³​res_volume, ⁴​raftable_release_days, ⁵​day_to_runoff, ⁶​index_to_runoff
# ℹ Use `print(n = ...)` to see more rows
```
…
xgb_grid
```

```r
> xgb_grid                                                             
# A tibble: 30 × 6
   tree_depth min_n loss_reduction sample_size  mtry learn_rate
        <int> <int>          <dbl>       <dbl> <int>      <dbl>
 1          2    15       1.40e- 9       0.845     2   1.15e- 4
 2          1    35       2.98e- 3       0.444     2   6.96e- 6
 3         11    20       2.15e-10       0.132     3   3.14e- 4
 4          6    28       1.56e+ 1       0.592     8   2.56e- 2
 5          7     7       2.96e- 6       0.855     8   1.47e- 8
 6          5    37       6.63e- 4       0.977     2   6.87e- 2
 7          6    36       1.22e- 8       0.781     3   3.78e- 7
 8          4    11       1.28e+ 1       0.205     3   2.33e-10
 9          9    18       2.28e- 2       0.579     5   7.40e- 8
10         13    24       8.44e- 8       0.713     7   8.14e-10
# … with 20 more rows
# ℹ Use `print(n = ...)` to see more rows
```
…
